INFO: App starting...
FATAL: Big LOL
INFO: User try to input range: lol
INFO: Range is parsing: lol
WARNING: Now i'll throw an exception -_-
ERROR: Dummy user: com.nishchymenko.fibonacci.exception.NotRangeException: Inputted data is not a range
INFO: User try to input range: 12 3
INFO: Range is parsing: 12 3
WARNING: Now i'll throw an exception -_-
ERROR: Dummy user: com.nishchymenko.fibonacci.exception.NumbersPositionException: Range should be growing
INFO: User try to input range: 1 1
INFO: Range is parsing: 1 1
WARNING: Now i'll throw an exception -_-
ERROR: Dummy user: com.nishchymenko.fibonacci.exception.NumbersEqualsExeption: Numbers should not be equals
INFO: User try to input range: 12 32
INFO: Range is parsing: 12 32
INFO: Range is created: Range{begin=12, end=32}
INFO: User try to input number: f
ERROR: Dummy user: java.lang.NumberFormatException: For input string: "f"
INFO: User try to input number: 2
INFO: Fibonacci object created
INFO: Fibonacci is processing...
